0.00044	0.000426
0.000438	0.000426
0.00044	0.000428
0.000375	0.000364
0.000439	0.000428
0.000375	0.000364
0.000375	0.000364
0.000375	0.000364
0.000438	0.000427
0.000377	0.000365
0.000438	0.000427
0.000376	0.000365
0.000376	0.000365
0.000472	0.000365
0.000438	0.00046
0.000376	0.000426
0.000375	0.000365
0.000377	0.000364
0.000376	0.000366
0.000377	0.000365
0.000441	0.000366
0.000376	0.000429
0.000375	0.000365
0.000376	0.000364
0.000439	0.000364
